<?xml version="1.0" encoding="UTF-8" standalone="no"?>
<svg
   xmlns:dc="http://purl.org/dc/elements/1.1/"
   xmlns:cc="http://creativecommons.org/ns#"
   xmlns:rdf="http://www.w3.org/1999/02/22-rdf-syntax-ns#"
   xmlns:svg="http://www.w3.org/2000/svg"
   xmlns="http://www.w3.org/2000/svg"
   xmlns:sodipodi="http://sodipodi.sourceforge.net/DTD/sodipodi-0.dtd"
   xmlns:inkscape="http://www.inkscape.org/namespaces/inkscape"
   viewBox="0 0 38 38"
   x="0px"
   y="0px"
   version="1.1"
   id="svg20"
   sodipodi:docname="logo-ros-footer.svg"
   width="38"
   height="38"
   inkscape:export-filename="/home/guillaume/Downloads/logopng.png"
   inkscape:export-xdpi="96"
   inkscape:export-ydpi="96"
   inkscape:version="0.92.4 (fd57863, 2020-04-02)">
  <metadata
     id="metadata26">
    <rdf:RDF>
      <cc:Work
         rdf:about="">
        <dc:format>image/svg+xml</dc:format>
        <dc:type
           rdf:resource="http://purl.org/dc/dcmitype/StillImage" />
        <dc:title></dc:title>
      </cc:Work>
    </rdf:RDF>
  </metadata>
  <defs
     id="defs24" />
  <sodipodi:namedview
     pagecolor="#ffffff"
     bordercolor="#666666"
     borderopacity="1"
     objecttolerance="10"
     gridtolerance="10"
     guidetolerance="10"
     inkscape:pageopacity="0"
     inkscape:pageshadow="2"
     inkscape:window-width="1920"
     inkscape:window-height="1055"
     id="namedview22"
     showgrid="false"
     fit-margin-top="0"
     fit-margin-left="0"
     fit-margin-right="0"
     fit-margin-bottom="0"
     inkscape:zoom="12.71875"
     inkscape:cx="21.494311"
     inkscape:cy="18.635737"
     inkscape:window-x="0"
     inkscape:window-y="25"
     inkscape:window-maximized="0"
     inkscape:current-layer="g831" />
  <g
     id="g831"
     transform="matrix(0.3216,0,0,0.3216,4.8208593e-7,6.0000003)">
    <g
       id="g923"
       transform="matrix(1.1875,0,0,1.1875,2.810669e-7,-18.656717)">
      <g
         id="g4585"
         transform="translate(126.23741,28.700197)"
         style="fill:#ff5555;stroke:none">
        <g
           id="g4581"
           style="fill:#ff5555;stroke:none">
          <circle
             style="opacity:1;vector-effect:none;fill:#ff5555;fill-opacity:1;stroke:none;stroke-width:0.49751243;stroke-linecap:butt;stroke-linejoin:miter;stroke-miterlimit:4;stroke-dasharray:none;stroke-dashoffset:0;stroke-opacity:1"
             id="path4578"
             cx="-76.486168"
             cy="21.051046"
             r="49.751244" />
        </g>
      </g>
      <g
         id="g14"
         transform="matrix(1.0365641,0,0,1.0365641,16.062892,16.581192)"
         style="fill:#ffffff;fill-opacity:1"
         inkscape:export-xdpi="96"
         inkscape:export-ydpi="96">
        <path
           d="M 62,2 H 44 A 1,1 0 0 0 43.261,2.326 L 31.528,15.2 19.737,2.325 A 1,1 0 0 0 19,2 H 3 A 1,1 0 0 0 2,3 v 19 a 1,1 0 0 0 0.566,0.9 l 15.251,7.338 -4.765,5.227 -0.174,-0.173 A 1,1 0 0 0 12.171,35 h -0.008 a 1,1 0 0 0 -0.711,0.3 l -3.988,4.13 a 5.45,5.45 0 0 0 0,7.414 l 1,1 A 4.571,4.571 0 0 0 9,48.277 V 52 H 6 v 4 H 2 v 6 h 60 v -6 h -4 v -4 h -3 v -3.529 a 4.637,4.637 0 0 0 0.778,-0.622 l 1,-1 a 5.446,5.446 0 0 0 0.013,-7.4 l -4,-4.142 a 1,1 0 0 0 -0.711,-0.3 0.954,0.954 0 0 0 -0.716,0.293 l -0.756,0.757 -5.041,-5.5 16.846,-7.638 A 1,1 0 0 0 63,22 V 3 A 1,1 0 0 0 62,2 Z M 4,21.372 V 4 H 18.56 L 30.175,16.682 19.223,28.7 Z m 4.891,19.465 3.293,-3.41 5.645,5.644 -3.365,3.364 a 3.415,3.415 0 0 1 -4.586,0 l -1,-1 a 3.419,3.419 0 0 1 0.013,-4.598 z m 22.727,-3.963 12.424,5.985 A 0.971,0.971 0 0 0 44,43.071 a 1,1 0 0 0 0.293,0.707 l 4.071,4.071 A 4.622,4.622 0 0 0 49,48.358 V 52 h -3 v 4 H 42 V 46 H 22 v 10 h -4 v -4 h -3 v -3.473 a 4.6,4.6 0 0 0 0.878,-0.678 l 4.072,-4.071 a 1,1 0 0 0 0,-1.414 L 19.813,42.228 Z M 40,56 H 24 V 48 H 40 Z M 11,49.171 A 5.7,5.7 0 0 0 12.171,49.304 5.765,5.765 0 0 0 13,49.23 V 52 H 11 Z M 8,54 h 8 v 2 H 8 Z m 52,4 v 2 H 4 v -2 z m -4,-4 v 2 H 48 V 54 Z M 53,52 H 51 V 49.2 A 5.743,5.743 0 0 0 52.071,49.305 5.669,5.669 0 0 0 53,49.221 Z m -0.941,-14.573 3.305,3.422 a 3.415,3.415 0 0 1 0,4.586 l -1,1 a 3.417,3.417 0 0 1 -4.586,0 L 46.414,43.071 Z M 49.192,37.465 45.376,41.282 33.992,35.8 43.651,31.42 Z M 61,21.355 18.3,40.717 14.466,36.883 44.441,4 H 61 Z"
           id="path2"
           inkscape:connector-curvature="0"
           style="fill:#ffffff;fill-opacity:1" />
        <rect
           x="30.136"
           y="16.5"
           width="12.728"
           height="2"
           transform="rotate(-45,36.499848,17.500268)"
           id="rect4"
           style="fill:#ffffff;fill-opacity:1" />
        <rect
           x="27.586"
           y="24"
           width="2.8280001"
           height="2"
           transform="rotate(-45,28.999368,25.000069)"
           id="rect6"
           style="fill:#ffffff;fill-opacity:1" />
        <path
           d="M 8,18.382 V 12 H 6 v 7 a 1,1 0 0 0 0.553,0.895 l 12,6 0.894,-1.79 z"
           id="path8"
           inkscape:connector-curvature="0"
           style="fill:#ffffff;fill-opacity:1" />
        <rect
           x="6"
           y="8"
           width="2"
           height="2"
           id="rect10"
           style="fill:#ffffff;fill-opacity:1" />
        <rect
           x="53.764"
           y="19"
           width="4.4720001"
           height="2"
           transform="rotate(-26.565,55.999328,19.999392)"
           id="rect12"
           style="fill:#ffffff;fill-opacity:1" />
      </g>
    </g>
  </g>
</svg>
